<define-tag pagetitle>DSA-4347-1 perl</define-tag>
<define-tag report_date>2018-11-29</define-tag>
<define-tag secrefs>CVE-2018-18311 CVE-2018-18312 CVE-2018-18313 CVE-2018-18314</define-tag>
<define-tag packages>perl</define-tag>
<define-tag isvulnerable>yes</define-tag>
<define-tag fixed>yes</define-tag>
<define-tag fixed-section>no</define-tag>

#use wml::debian::security



</dl>
