<define-tag pagetitle>DSA-4679-1 keystone</define-tag>
<define-tag report_date>2020-5-06</define-tag>
<define-tag secrefs>not yet available Bug#959900</define-tag>
<define-tag packages>keystone</define-tag>
<define-tag isvulnerable>yes</define-tag>
<define-tag fixed>yes</define-tag>
<define-tag fixed-section>no</define-tag>

#use wml::debian::security



</dl>
