<define-tag pagetitle>DLA-2538-1 mariadb-10.1</define-tag>
<define-tag report_date>2021-01-31</define-tag>
<define-tag secrefs>CVE-2020-14765 CVE-2020-14812</define-tag>
<define-tag packages>mariadb-10.1</define-tag>
<define-tag isvulnerable>yes</define-tag>
<define-tag fixed>yes</define-tag>
<define-tag fixed-section>no</define-tag>

#use wml::debian::security

