<define-tag pagetitle>DLA-2222-1 libexif</define-tag>
<define-tag report_date>2020-05-28</define-tag>
<define-tag secrefs>CVE-2018-20030 CVE-2020-13112 CVE-2020-13113 CVE-2020-13114 Bug#918730 Bug#961407 Bug#961409 Bug#961410</define-tag>
<define-tag packages>libexif</define-tag>
<define-tag isvulnerable>yes</define-tag>
<define-tag fixed>yes</define-tag>
<define-tag fixed-section>no</define-tag>

#use wml::debian::security

