<define-tag pagetitle>DLA-2081-1 openjpeg2</define-tag>
<define-tag report_date>2020-01-31</define-tag>
<define-tag secrefs>CVE-2020-6851</define-tag>
<define-tag packages>openjpeg2</define-tag>
<define-tag isvulnerable>yes</define-tag>
<define-tag fixed>yes</define-tag>
<define-tag fixed-section>no</define-tag>

#use wml::debian::security

