<define-tag pagetitle>DLA-1574-1 imagemagick</define-tag>
<define-tag report_date>2018-11-12</define-tag>
<define-tag secrefs>CVE-2018-18025</define-tag>
<define-tag packages>imagemagick</define-tag>
<define-tag isvulnerable>yes</define-tag>
<define-tag fixed>yes</define-tag>
<define-tag fixed-section>no</define-tag>

#use wml::debian::security

