<define-tag pagetitle>DLA-1399-1 ruby-passenger</define-tag>
<define-tag report_date>2018-6-27</define-tag>
<define-tag secrefs>CVE-2015-7519 CVE-2018-12029 Bug#864651</define-tag>
<define-tag packages>ruby-passenger</define-tag>
<define-tag isvulnerable>yes</define-tag>
<define-tag fixed>yes</define-tag>
<define-tag fixed-section>no</define-tag>

#use wml::debian::security

