<define-tag pagetitle>DLA-1612-1 libarchive</define-tag>
<define-tag report_date>2018-12-21</define-tag>
<define-tag secrefs>CVE-2018-1000877 CVE-2018-1000878 Bug#916964 Bug#916963</define-tag>
<define-tag packages>libarchive</define-tag>
<define-tag isvulnerable>yes</define-tag>
<define-tag fixed>yes</define-tag>
<define-tag fixed-section>no</define-tag>

#use wml::debian::security

