<define-tag pagetitle>DLA-1769-1 gst-plugins-base0.10</define-tag>
<define-tag report_date>2019-4-28</define-tag>
<define-tag secrefs>CVE-2019-9928</define-tag>
<define-tag packages>gst-plugins-base0.10</define-tag>
<define-tag isvulnerable>yes</define-tag>
<define-tag fixed>yes</define-tag>
<define-tag fixed-section>no</define-tag>

#use wml::debian::security

