<define-tag pagetitle>DLA-2013-1 libvorbis</define-tag>
<define-tag report_date>2019-11-27</define-tag>
<define-tag secrefs>CVE-2017-14160 CVE-2018-10392 CVE-2018-10393</define-tag>
<define-tag packages>libvorbis</define-tag>
<define-tag isvulnerable>yes</define-tag>
<define-tag fixed>yes</define-tag>
<define-tag fixed-section>no</define-tag>

#use wml::debian::security

