<define-tag pagetitle>DLA-1712-1 libsndfile</define-tag>
<define-tag report_date>2019-3-13</define-tag>
<define-tag secrefs>CVE-2019-3832</define-tag>
<define-tag packages>libsndfile</define-tag>
<define-tag isvulnerable>yes</define-tag>
<define-tag fixed>yes</define-tag>
<define-tag fixed-section>no</define-tag>

#use wml::debian::security

