<define-tag pagetitle>DLA-704-1 openjdk-7</define-tag>
<define-tag report_date>2016-11-6</define-tag>
<define-tag secrefs>CVE-2016-5542 CVE-2016-5554 CVE-2016-5573 CVE-2016-5582 CVE-2016-5597 Bug#841692</define-tag>
<define-tag packages>openjdk-7</define-tag>
<define-tag isvulnerable>yes</define-tag>
<define-tag fixed>yes</define-tag>
<define-tag fixed-section>no</define-tag>

#use wml::debian::security

